uart/uart_rx/dump.vcd
$date
	Thu Feb 01 19:31:30 2024
$end
$version
	Icarus Verilog
$end
$timescale
	100ns
$end
$scope module testbench $end
$var parameter 64 ! BIT_LENGTH $end
$var parameter 32 " CLK_PERIOD $end
$var reg 8 # UART_msg [7:0] $end
$var reg 1 $ arstn $end
$var reg 1 % clk $end
$var reg 1 & uart_tx $end
$scope begin $ivl_for_loop0 $end
$var integer 32 ' i [31:0] $end
$upscope $end
$scope begin $ivl_for_loop1 $end
$var integer 32 ( i [31:0] $end
$upscope $end
$scope begin $ivl_for_loop2 $end
$var integer 32 ) i [31:0] $end
$upscope $end
$scope begin $ivl_for_loop3 $end
$var integer 32 * i [31:0] $end
$upscope $end
$upscope $end
$enddefinitions $end
$comment Show the parameter values. $end
$dumpall
b10 "
b100 !
$end
#0
$dumpvars
b0 *
b0 )
b0 (
b0 '
0&
0%
0$
bx #
$end
#200
1&
b1001100 #
1$
1%
#400
0%
#600
1%
#800
0%
#1000
1%
#1200
0%
#1400
0&
b1 '
1%
#1600
0%
#1800
b10 '
1%
#2000
0%
#2200
b11 '
1%
#2400
0%
#2600
1&
b100 '
1%
#2800
0%
#3000
b101 '
1%
#3200
0%
#3400
0&
b110 '
1%
#3600
0%
#3800
b111 '
1%
#4000
0%
#4200
1&
b1000 '
1%
#4400
0%
#4600
0&
b1001 '
1%
#4800
0%
#5000
1&
b1010 '
1%
#5200
0%
#5400
1%
#5600
0%
#5800
1%
#6000
0%
#6200
0&
b1 (
1%
#6400
0%
#6600
b10 (
1%
#6800
0%
#7000
b11 (
1%
#7200
0%
#7400
1&
b100 (
1%
#7600
0%
#7800
b101 (
1%
#8000
0%
#8200
0&
b110 (
1%
#8400
0%
#8600
b111 (
1%
#8800
0%
#9000
1&
b1000 (
1%
#9200
0%
#9400
0&
b1001 (
1%
#9600
0%
#9800
1&
b101101 #
b1010 (
1%
#10000
0%
#10200
1%
#10400
0%
#10600
1%
#10800
0%
#11000
0&
b1 )
1%
#11200
0%
#11400
1&
b10 )
1%
#11600
0%
#11800
0&
b11 )
1%
#12000
0%
#12200
1&
b100 )
1%
#12400
0%
#12600
b101 )
1%
#12800
0%
#13000
0&
b110 )
1%
#13200
0%
#13400
1&
b111 )
1%
#13600
0%
#13800
0&
b1000 )
1%
#14000
0%
#14200
b1001 )
1%
#14400
0%
#14600
1&
b1001100 #
b1010 )
1%
#14800
0%
#15000
1%
#15200
0%
#15400
1%
#15600
0%
#15800
0&
b1 *
1%
#16000
0%
#16200
b10 *
1%
#16400
0%
#16600
1&
b11 *
1%
#16800
0%
#17000
0&
b100 *
1%
#17200
0%
#17400
b101 *
1%
#17600
0%
#17800
1&
b110 *
1%
#18000
0%
#18200
b111 *
1%
#18400
0%
#18600
0&
b1000 *
1%
#18800
0%
#19000
b1001 *
1%
