uart/uart_tx/dump.vcd
$date
	Mon Feb 12 14:34:17 2024
$end
$version
	Icarus Verilog
$end
$timescale
	10ps
$end
$scope module testbench $end
$var wire 1 ! tx_busy $end
$var wire 1 " tx $end
$var parameter 32 # CLK_PERIOD $end
$var reg 1 $ arstn $end
$var reg 1 % clk $end
$var reg 8 & message [7:0] $end
$var reg 1 ' tx_ready $end
$scope module DUT0 $end
$var wire 1 $ arstn $end
$var wire 1 % clk $end
$var wire 8 ( message [7:0] $end
$var wire 1 " tx $end
$var wire 1 ! tx_busy $end
$var wire 1 ' tx_ready $end
$var parameter 32 ) BITRATE $end
$var parameter 32 * BIT_PERIOD $end
$var parameter 32 + CLK_FREQUENCY $end
$var parameter 32 , W_MESSAGE $end
$var parameter 32 - W_PACKAGE $end
$var reg 4 . bit_cnt [3:0] $end
$var reg 6 / bit_period_cnt [5:0] $end
$var reg 10 0 tx_buffer [9:0] $end
$upscope $end
$upscope $end
$enddefinitions $end
$comment Show the parameter values. $end
$dumpall
b1010 -
b1000 ,
b10011000100101101000000000 +
b101000 *
b11110100001001000000 )
b11111010 #
$end
#0
$dumpvars
b1111111110 0
b0 /
b0 .
b11100101 (
0'
b11100101 &
0%
0$
1"
0!
$end
#1250
1%
#2500
0%
#3750
1%
#5000
0%
#6250
1%
#7500
0%
#8750
1%
#10000
0%
#11250
1%
#12500
0%
#13750
1%
#15000
0%
#16250
1%
#17500
0%
#18750
1%
#20000
0%
#21250
1%
#22500
0%
#23750
1%
#25000
0%
#26250
1%
#27500
0%
#28750
1%
#30000
0%
#31250
1%
#32500
0%
#33750
1%
#35000
0%
#36250
1%
#37500
0%
#38750
1%
#40000
0%
#41250
1%
#42500
0%
#43750
1%
#45000
0%
#46250
1%
#47500
0%
#48750
1%
#50000
0"
1!
b11010 &
b11010 (
1'
0%
1$
#51250
b1 /
b1000110100 0
1%
#52500
0%
#53750
b10 /
1%
#55000
0%
#56250
b11 /
1%
#57500
0%
#58750
b100 /
1%
#60000
0%
#61250
b101 /
1%
#62500
0%
#63750
b110 /
1%
#65000
0%
#66250
b111 /
1%
#67500
0%
#68750
b1000 /
1%
#70000
0%
#71250
b1001 /
1%
#72500
0%
#73750
b1010 /
1%
#75000
0%
#76250
b1011 /
1%
#77500
0%
#78750
b1100 /
1%
#80000
0%
#81250
b1101 /
1%
#82500
0%
#83750
b1110 /
1%
#85000
0%
#86250
b1111 /
1%
#87500
0%
#88750
b10000 /
1%
#90000
0%
#91250
b10001 /
1%
#92500
0%
#93750
b10010 /
1%
#95000
0%
#96250
b10011 /
1%
#97500
0%
#98750
b10100 /
1%
#100000
0%
#101250
b10101 /
1%
#102500
0%
#103750
b10110 /
1%
#105000
0%
#106250
b10111 /
1%
#107500
0%
#108750
b11000 /
1%
#110000
0%
#111250
b11001 /
1%
#112500
0%
#113750
b11010 /
1%
#115000
0%
#116250
b11011 /
1%
#117500
0%
#118750
b11100 /
1%
#120000
0%
#121250
b11101 /
1%
#122500
0%
#123750
b11110 /
1%
#125000
0%
#126250
b11111 /
1%
#127500
0%
#128750
b100000 /
1%
#130000
0%
#131250
b100001 /
1%
#132500
0%
#133750
b100010 /
1%
#135000
0%
#136250
b100011 /
1%
#137500
0%
#138750
b100100 /
1%
#140000
0%
#141250
b100101 /
1%
#142500
0%
#143750
b100110 /
1%
#145000
0%
#146250
b100111 /
1%
#147500
0%
#148750
b0 /
b1 .
1%
#150000
0%
#151250
b1 /
1%
#152500
0%
#153750
b10 /
1%
#155000
0%
#156250
b11 /
1%
#157500
0%
#158750
b100 /
1%
#160000
0%
#161250
b101 /
1%
#162500
0%
#163750
b110 /
1%
#165000
0%
#166250
b111 /
1%
#167500
0%
#168750
b1000 /
1%
#170000
0%
#171250
b1001 /
1%
#172500
0%
#173750
b1010 /
1%
#175000
0%
#176250
b1011 /
1%
#177500
0%
#178750
b1100 /
1%
#180000
0%
#181250
b1101 /
1%
#182500
0%
#183750
b1110 /
1%
#185000
0%
#186250
b1111 /
1%
#187500
0%
#188750
b10000 /
1%
#190000
0%
#191250
b10001 /
1%
#192500
0%
#193750
b10010 /
1%
#195000
0%
#196250
b10011 /
1%
#197500
0%
#198750
b10100 /
1%
#200000
0%
#201250
b10101 /
1%
#202500
0%
#203750
b10110 /
1%
#205000
0%
#206250
b10111 /
1%
#207500
0%
#208750
b11000 /
1%
#210000
0%
#211250
b11001 /
1%
#212500
0%
#213750
b11010 /
1%
#215000
0%
#216250
b11011 /
1%
#217500
0%
#218750
b11100 /
1%
#220000
0%
#221250
b11101 /
1%
#222500
0%
#223750
b11110 /
1%
#225000
0%
#226250
b11111 /
1%
#227500
0%
#228750
b100000 /
1%
#230000
0%
#231250
b100001 /
1%
#232500
0%
#233750
b100010 /
1%
#235000
0%
#236250
b100011 /
1%
#237500
0%
#238750
b100100 /
1%
#240000
0%
#241250
b100101 /
1%
#242500
0%
#243750
b100110 /
1%
#245000
0%
#246250
b100111 /
1%
#247500
0%
#248750
1"
b0 /
b10 .
1%
#250000
0%
#251250
b1 /
1%
#252500
0%
#253750
b10 /
1%
#255000
0%
#256250
b11 /
1%
#257500
0%
#258750
b100 /
1%
#260000
0%
#261250
b101 /
1%
#262500
0%
#263750
b110 /
1%
#265000
0%
#266250
b111 /
1%
#267500
0%
#268750
b1000 /
1%
#270000
0%
#271250
b1001 /
1%
#272500
0%
#273750
b1010 /
1%
#275000
0%
#276250
b1011 /
1%
#277500
0%
#278750
b1100 /
1%
#280000
0%
#281250
b1101 /
1%
#282500
0%
#283750
b1110 /
1%
#285000
0%
#286250
b1111 /
1%
#287500
0%
#288750
b10000 /
1%
#290000
0%
#291250
b10001 /
1%
#292500
0%
#293750
b10010 /
1%
#295000
0%
#296250
b10011 /
1%
#297500
0%
#298750
b10100 /
1%
#300000
0%
#301250
b10101 /
1%
#302500
0%
#303750
b10110 /
1%
#305000
0%
#306250
b10111 /
1%
#307500
0%
#308750
b11000 /
1%
#310000
0%
#311250
b11001 /
1%
#312500
0%
#313750
b11010 /
1%
#315000
0%
#316250
b11011 /
1%
#317500
0%
#318750
b11100 /
1%
#320000
0%
#321250
b11101 /
1%
#322500
0%
#323750
b11110 /
1%
#325000
0%
#326250
b11111 /
1%
#327500
0%
#328750
b100000 /
1%
#330000
0%
#331250
b100001 /
1%
#332500
0%
#333750
b100010 /
1%
#335000
0%
#336250
b100011 /
1%
#337500
0%
#338750
b100100 /
1%
#340000
0%
#341250
b100101 /
1%
#342500
0%
#343750
b100110 /
1%
#345000
0%
#346250
b100111 /
1%
#347500
0%
#348750
0"
b0 /
b11 .
1%
#350000
0%
#351250
b1 /
1%
#352500
0%
#353750
b10 /
1%
#355000
0%
#356250
b11 /
1%
#357500
0%
#358750
b100 /
1%
#360000
0%
#361250
b101 /
1%
#362500
0%
#363750
b110 /
1%
#365000
0%
#366250
b111 /
1%
#367500
0%
#368750
b1000 /
1%
#370000
0%
#371250
b1001 /
1%
#372500
0%
#373750
b1010 /
1%
#375000
0%
#376250
b1011 /
1%
#377500
0%
#378750
b1100 /
1%
#380000
0%
#381250
b1101 /
1%
#382500
0%
#383750
b1110 /
1%
#385000
0%
#386250
b1111 /
1%
#387500
0%
#388750
b10000 /
1%
#390000
0%
#391250
b10001 /
1%
#392500
0%
#393750
b10010 /
1%
#395000
0%
#396250
b10011 /
1%
#397500
0%
#398750
b10100 /
1%
#400000
0%
#401250
b10101 /
1%
#402500
0%
#403750
b10110 /
1%
#405000
0%
#406250
b10111 /
1%
#407500
0%
#408750
b11000 /
1%
#410000
0%
#411250
b11001 /
1%
#412500
0%
#413750
b11010 /
1%
#415000
0%
#416250
b11011 /
1%
#417500
0%
#418750
b11100 /
1%
#420000
0%
#421250
b11101 /
1%
#422500
0%
#423750
b11110 /
1%
#425000
0%
#426250
b11111 /
1%
#427500
0%
#428750
b100000 /
1%
#430000
0%
#431250
b100001 /
1%
#432500
0%
#433750
b100010 /
1%
#435000
0%
#436250
b100011 /
1%
#437500
0%
#438750
b100100 /
1%
#440000
0%
#441250
b100101 /
1%
#442500
0%
#443750
b100110 /
1%
#445000
0%
#446250
b100111 /
1%
#447500
0%
#448750
1"
b0 /
b100 .
1%
#450000
0%
#451250
b1 /
1%
#452500
0%
#453750
b10 /
1%
#455000
0%
#456250
b11 /
1%
#457500
0%
#458750
b100 /
1%
#460000
0%
#461250
b101 /
1%
#462500
0%
#463750
b110 /
1%
#465000
0%
#466250
b111 /
1%
#467500
0%
#468750
b1000 /
1%
#470000
0%
#471250
b1001 /
1%
#472500
0%
#473750
b1010 /
1%
#475000
0%
#476250
b1011 /
1%
#477500
0%
#478750
b1100 /
1%
#480000
0%
#481250
b1101 /
1%
#482500
0%
#483750
b1110 /
1%
#485000
0%
#486250
b1111 /
1%
#487500
0%
#488750
b10000 /
1%
#490000
0%
#491250
b10001 /
1%
#492500
0%
#493750
b10010 /
1%
#495000
0%
#496250
b10011 /
1%
#497500
0%
#498750
b10100 /
1%
#500000
0%
#501250
b10101 /
1%
#502500
0%
#503750
b10110 /
1%
#505000
0%
#506250
b10111 /
1%
#507500
0%
#508750
b11000 /
1%
#510000
0%
#511250
b11001 /
1%
#512500
0%
#513750
b11010 /
1%
#515000
0%
#516250
b11011 /
1%
#517500
0%
#518750
b11100 /
1%
#520000
0%
#521250
b11101 /
1%
#522500
0%
#523750
b11110 /
1%
#525000
0%
#526250
b11111 /
1%
#527500
0%
#528750
b100000 /
1%
#530000
0%
#531250
b100001 /
1%
#532500
0%
#533750
b100010 /
1%
#535000
0%
#536250
b100011 /
1%
#537500
0%
#538750
b100100 /
1%
#540000
0%
#541250
b100101 /
1%
#542500
0%
#543750
b100110 /
1%
#545000
0%
#546250
b100111 /
1%
#547500
0%
#548750
b0 /
b101 .
1%
#550000
0%
#551250
b1 /
1%
#552500
0%
#553750
b10 /
1%
#555000
0%
#556250
b11 /
1%
#557500
0%
#558750
b100 /
1%
#560000
0%
#561250
b101 /
1%
#562500
0%
#563750
b110 /
1%
#565000
0%
#566250
b111 /
1%
#567500
0%
#568750
b1000 /
1%
#570000
0%
#571250
b1001 /
1%
#572500
0%
#573750
b1010 /
1%
#575000
0%
#576250
b1011 /
1%
#577500
0%
#578750
b1100 /
1%
#580000
0%
#581250
b1101 /
1%
#582500
0%
#583750
b1110 /
1%
#585000
0%
#586250
b1111 /
1%
#587500
0%
#588750
b10000 /
1%
#590000
0%
#591250
b10001 /
1%
#592500
0%
#593750
b10010 /
1%
#595000
0%
#596250
b10011 /
1%
#597500
0%
#598750
b10100 /
1%
#600000
0%
#601250
b10101 /
1%
#602500
0%
#603750
b10110 /
1%
#605000
0%
#606250
b10111 /
1%
#607500
0%
#608750
b11000 /
1%
#610000
0%
#611250
b11001 /
1%
#612500
0%
#613750
b11010 /
1%
#615000
0%
#616250
b11011 /
1%
#617500
0%
#618750
b11100 /
1%
#620000
0%
#621250
b11101 /
1%
#622500
0%
#623750
b11110 /
1%
#625000
0%
#626250
b11111 /
1%
#627500
0%
#628750
b100000 /
1%
#630000
0%
#631250
b100001 /
1%
#632500
0%
#633750
b100010 /
1%
#635000
0%
#636250
b100011 /
1%
#637500
0%
#638750
b100100 /
1%
#640000
0%
#641250
b100101 /
1%
#642500
0%
#643750
b100110 /
1%
#645000
0%
#646250
b100111 /
1%
#647500
0%
#648750
0"
b0 /
b110 .
1%
#650000
0%
#651250
b1 /
1%
#652500
0%
#653750
b10 /
1%
#655000
0%
#656250
b11 /
1%
#657500
0%
#658750
b100 /
1%
#660000
0%
#661250
b101 /
1%
#662500
0%
#663750
b110 /
1%
#665000
0%
#666250
b111 /
1%
#667500
0%
#668750
b1000 /
1%
#670000
0%
#671250
b1001 /
1%
#672500
0%
#673750
b1010 /
1%
#675000
0%
#676250
b1011 /
1%
#677500
0%
#678750
b1100 /
1%
#680000
0%
#681250
b1101 /
1%
#682500
0%
#683750
b1110 /
1%
#685000
0%
#686250
b1111 /
1%
#687500
0%
#688750
b10000 /
1%
#690000
0%
#691250
b10001 /
1%
#692500
0%
#693750
b10010 /
1%
#695000
0%
#696250
b10011 /
1%
#697500
0%
#698750
b10100 /
1%
#700000
0%
#701250
b10101 /
1%
#702500
0%
#703750
b10110 /
1%
#705000
0%
#706250
b10111 /
1%
#707500
0%
#708750
b11000 /
1%
#710000
0%
#711250
b11001 /
1%
#712500
0%
#713750
b11010 /
1%
#715000
0%
#716250
b11011 /
1%
#717500
0%
#718750
b11100 /
1%
#720000
0%
#721250
b11101 /
1%
#722500
0%
#723750
b11110 /
1%
#725000
0%
#726250
b11111 /
1%
#727500
0%
#728750
b100000 /
1%
#730000
0%
#731250
b100001 /
1%
#732500
0%
#733750
b100010 /
1%
#735000
0%
#736250
b100011 /
1%
#737500
0%
#738750
b100100 /
1%
#740000
0%
#741250
b100101 /
1%
#742500
0%
#743750
b100110 /
1%
#745000
0%
#746250
b100111 /
1%
#747500
0%
#748750
b0 /
b111 .
1%
#750000
0%
#751250
b1 /
1%
#752500
0%
#753750
b10 /
1%
#755000
0%
#756250
b11 /
1%
#757500
0%
#758750
b100 /
1%
#760000
0%
#761250
b101 /
1%
#762500
0%
#763750
b110 /
1%
#765000
0%
#766250
b111 /
1%
#767500
0%
#768750
b1000 /
1%
#770000
0%
#771250
b1001 /
1%
#772500
0%
#773750
b1010 /
1%
#775000
0%
#776250
b1011 /
1%
#777500
0%
#778750
b1100 /
1%
#780000
0%
#781250
b1101 /
1%
#782500
0%
#783750
b1110 /
1%
#785000
0%
#786250
b1111 /
1%
#787500
0%
#788750
b10000 /
1%
#790000
0%
#791250
b10001 /
1%
#792500
0%
#793750
b10010 /
1%
#795000
0%
#796250
b10011 /
1%
#797500
0%
#798750
b10100 /
1%
#800000
0%
#801250
b10101 /
1%
#802500
0%
#803750
b10110 /
1%
#805000
0%
#806250
b10111 /
1%
#807500
0%
#808750
b11000 /
1%
#810000
0%
#811250
b11001 /
1%
#812500
0%
#813750
b11010 /
1%
#815000
0%
#816250
b11011 /
1%
#817500
0%
#818750
b11100 /
1%
#820000
0%
#821250
b11101 /
1%
#822500
0%
#823750
b11110 /
1%
#825000
0%
#826250
b11111 /
1%
#827500
0%
#828750
b100000 /
1%
#830000
0%
#831250
b100001 /
1%
#832500
0%
#833750
b100010 /
1%
#835000
0%
#836250
b100011 /
1%
#837500
0%
#838750
b100100 /
1%
#840000
0%
#841250
b100101 /
1%
#842500
0%
#843750
b100110 /
1%
#845000
0%
#846250
b100111 /
1%
#847500
0%
#848750
b0 /
b1000 .
1%
#850000
0%
#851250
b1 /
1%
#852500
0%
#853750
b10 /
1%
#855000
0%
#856250
b11 /
1%
#857500
0%
#858750
b100 /
1%
#860000
0%
#861250
b101 /
1%
#862500
0%
#863750
b110 /
1%
#865000
0%
#866250
b111 /
1%
#867500
0%
#868750
b1000 /
1%
#870000
0%
#871250
b1001 /
1%
#872500
0%
#873750
b1010 /
1%
#875000
0%
#876250
b1011 /
1%
#877500
0%
#878750
b1100 /
1%
#880000
0%
#881250
b1101 /
1%
#882500
0%
#883750
b1110 /
1%
#885000
0%
#886250
b1111 /
1%
#887500
0%
#888750
b10000 /
1%
#890000
0%
#891250
b10001 /
1%
#892500
0%
#893750
b10010 /
1%
#895000
0%
#896250
b10011 /
1%
#897500
0%
#898750
b10100 /
1%
#900000
0%
#901250
b10101 /
1%
#902500
0%
#903750
b10110 /
1%
#905000
0%
#906250
b10111 /
1%
#907500
0%
#908750
b11000 /
1%
#910000
0%
#911250
b11001 /
1%
#912500
0%
#913750
b11010 /
1%
#915000
0%
#916250
b11011 /
1%
#917500
0%
#918750
b11100 /
1%
#920000
0%
#921250
b11101 /
1%
#922500
0%
#923750
b11110 /
1%
#925000
0%
#926250
b11111 /
1%
#927500
0%
#928750
b100000 /
1%
#930000
0%
#931250
b100001 /
1%
#932500
0%
#933750
b100010 /
1%
#935000
0%
#936250
b100011 /
1%
#937500
0%
#938750
b100100 /
1%
#940000
0%
#941250
b100101 /
1%
#942500
0%
#943750
b100110 /
1%
#945000
0%
#946250
b100111 /
1%
#947500
0%
#948750
1"
b0 /
b1001 .
1%
#950000
0%
#951250
b1 /
1%
#952500
0%
#953750
b10 /
1%
#955000
0%
#956250
b11 /
1%
#957500
0%
#958750
b100 /
1%
#960000
0%
#961250
b101 /
1%
#962500
0%
#963750
b110 /
1%
#965000
0%
#966250
b111 /
1%
#967500
0%
#968750
b1000 /
1%
#970000
0%
#971250
b1001 /
1%
#972500
0%
#973750
b1010 /
1%
#975000
0%
#976250
b1011 /
1%
#977500
0%
#978750
b1100 /
1%
#980000
0%
#981250
b1101 /
1%
#982500
0%
#983750
b1110 /
1%
#985000
0%
#986250
b1111 /
1%
#987500
0%
#988750
b10000 /
1%
#990000
0%
#991250
b10001 /
1%
#992500
0%
#993750
b10010 /
1%
#995000
0%
#996250
b10011 /
1%
#997500
0%
#998750
b10100 /
1%
#1000000
0%
#1001250
b10101 /
1%
#1002500
0%
#1003750
b10110 /
1%
#1005000
0%
#1006250
b10111 /
1%
#1007500
0%
#1008750
b11000 /
1%
#1010000
0%
#1011250
b11001 /
1%
#1012500
0%
#1013750
b11010 /
1%
#1015000
0%
#1016250
b11011 /
1%
#1017500
0%
#1018750
b11100 /
1%
#1020000
0%
#1021250
b11101 /
1%
#1022500
0%
#1023750
b11110 /
1%
#1025000
0%
#1026250
b11111 /
1%
#1027500
0%
#1028750
b100000 /
1%
#1030000
0%
#1031250
b100001 /
1%
#1032500
0%
#1033750
b100010 /
1%
#1035000
0%
#1036250
b100011 /
1%
#1037500
0%
#1038750
b100100 /
1%
#1040000
0%
#1041250
b100101 /
1%
#1042500
0%
#1043750
b100110 /
1%
#1045000
0%
#1046250
b100111 /
1%
#1047500
0%
#1048750
0"
b0 /
b0 .
1%
#1050000
0%
#1051250
b1 /
1%
#1052500
0%
#1053750
b10 /
1%
#1055000
0%
#1056250
b11 /
1%
#1057500
0%
#1058750
b100 /
1%
#1060000
0%
#1061250
b101 /
1%
#1062500
0%
#1063750
b110 /
1%
#1065000
0%
#1066250
b111 /
1%
#1067500
0%
#1068750
b1000 /
1%
#1070000
0%
#1071250
b1001 /
1%
#1072500
0%
#1073750
b1010 /
1%
#1075000
0%
#1076250
b1011 /
1%
#1077500
0%
#1078750
b1100 /
1%
#1080000
0%
#1081250
b1101 /
1%
#1082500
0%
#1083750
b1110 /
1%
#1085000
0%
#1086250
b1111 /
1%
#1087500
0%
#1088750
b10000 /
1%
#1090000
0%
#1091250
b10001 /
1%
#1092500
0%
#1093750
b10010 /
1%
#1095000
0%
#1096250
b10011 /
1%
#1097500
0%
#1098750
b10100 /
1%
#1100000
0%
#1101250
b10101 /
1%
#1102500
0%
#1103750
b10110 /
1%
#1105000
0%
#1106250
b10111 /
1%
#1107500
0%
#1108750
b11000 /
1%
#1110000
0%
#1111250
b11001 /
1%
#1112500
0%
#1113750
b11010 /
1%
#1115000
0%
#1116250
b11011 /
1%
#1117500
0%
#1118750
b11100 /
1%
#1120000
0%
#1121250
b11101 /
1%
#1122500
0%
#1123750
b11110 /
1%
#1125000
0%
#1126250
b11111 /
1%
#1127500
0%
#1128750
b100000 /
1%
#1130000
0%
#1131250
b100001 /
1%
#1132500
0%
#1133750
b100010 /
1%
#1135000
0%
#1136250
b100011 /
1%
#1137500
0%
#1138750
b100100 /
1%
#1140000
0%
#1141250
b100101 /
1%
#1142500
0%
#1143750
b100110 /
1%
#1145000
0%
#1146250
b100111 /
1%
#1147500
0%
#1148750
b0 /
b1 .
1%
#1150000
0%
#1151250
b1 /
1%
#1152500
0%
#1153750
b10 /
1%
#1155000
0%
#1156250
b11 /
1%
#1157500
0%
#1158750
b100 /
1%
#1160000
0%
#1161250
b101 /
1%
#1162500
0%
#1163750
b110 /
1%
#1165000
0%
#1166250
b111 /
1%
#1167500
0%
#1168750
b1000 /
1%
#1170000
0%
#1171250
b1001 /
1%
#1172500
0%
#1173750
b1010 /
1%
#1175000
0%
#1176250
b1011 /
1%
#1177500
0%
#1178750
b1100 /
1%
#1180000
0%
#1181250
b1101 /
1%
#1182500
0%
#1183750
b1110 /
1%
#1185000
0%
#1186250
b1111 /
1%
#1187500
0%
#1188750
b10000 /
1%
#1190000
0%
#1191250
b10001 /
1%
#1192500
0%
#1193750
b10010 /
1%
#1195000
0%
#1196250
b10011 /
1%
#1197500
0%
#1198750
b10100 /
1%
#1200000
0%
#1201250
b10101 /
1%
#1202500
0%
#1203750
b10110 /
1%
#1205000
0%
#1206250
b10111 /
1%
#1207500
0%
#1208750
b11000 /
1%
#1210000
0%
#1211250
b11001 /
1%
#1212500
0%
#1213750
b11010 /
1%
#1215000
0%
#1216250
b11011 /
1%
#1217500
0%
#1218750
b11100 /
1%
#1220000
0%
#1221250
b11101 /
1%
#1222500
0%
#1223750
b11110 /
1%
#1225000
0%
#1226250
b11111 /
1%
#1227500
0%
#1228750
b100000 /
1%
#1230000
0%
#1231250
b100001 /
1%
#1232500
0%
#1233750
b100010 /
1%
#1235000
0%
#1236250
b100011 /
1%
#1237500
0%
#1238750
b100100 /
1%
#1240000
0%
#1241250
b100101 /
1%
#1242500
0%
#1243750
b100110 /
1%
#1245000
0%
#1246250
b100111 /
1%
#1247500
0%
#1248750
1"
b0 /
b10 .
1%
#1250000
0%
#1251250
b1 /
1%
#1252500
0%
#1253750
b10 /
1%
#1255000
0%
#1256250
b11 /
1%
#1257500
0%
#1258750
b100 /
1%
#1260000
0%
#1261250
b101 /
1%
#1262500
0%
#1263750
b110 /
1%
#1265000
0%
#1266250
b111 /
1%
#1267500
0%
#1268750
b1000 /
1%
#1270000
0%
#1271250
b1001 /
1%
#1272500
0%
#1273750
b1010 /
1%
#1275000
0%
#1276250
b1011 /
1%
#1277500
0%
#1278750
b1100 /
1%
#1280000
0%
#1281250
b1101 /
1%
#1282500
0%
#1283750
b1110 /
1%
#1285000
0%
#1286250
b1111 /
1%
#1287500
0%
#1288750
b10000 /
1%
#1290000
0%
#1291250
b10001 /
1%
#1292500
0%
#1293750
b10010 /
1%
#1295000
0%
#1296250
b10011 /
1%
#1297500
0%
#1298750
b10100 /
1%
#1300000
0%
#1301250
b10101 /
1%
#1302500
0%
#1303750
b10110 /
1%
#1305000
0%
#1306250
b10111 /
1%
#1307500
0%
#1308750
b11000 /
1%
#1310000
0%
#1311250
b11001 /
1%
#1312500
0%
#1313750
b11010 /
1%
#1315000
0%
#1316250
b11011 /
1%
#1317500
0%
#1318750
b11100 /
1%
#1320000
0%
#1321250
b11101 /
1%
#1322500
0%
#1323750
b11110 /
1%
#1325000
0%
#1326250
b11111 /
1%
#1327500
0%
#1328750
b100000 /
1%
#1330000
0%
#1331250
b100001 /
1%
#1332500
0%
#1333750
b100010 /
1%
#1335000
0%
#1336250
b100011 /
1%
#1337500
0%
#1338750
b100100 /
1%
#1340000
0%
#1341250
b100101 /
1%
#1342500
0%
#1343750
b100110 /
1%
#1345000
0%
#1346250
b100111 /
1%
#1347500
0%
#1348750
0"
b0 /
b11 .
1%
#1350000
0%
#1351250
b1 /
1%
#1352500
0%
#1353750
b10 /
1%
#1355000
0%
#1356250
b11 /
1%
#1357500
0%
#1358750
b100 /
1%
#1360000
0%
#1361250
b101 /
1%
#1362500
0%
#1363750
b110 /
1%
#1365000
0%
#1366250
b111 /
1%
#1367500
0%
#1368750
b1000 /
1%
#1370000
0%
#1371250
b1001 /
1%
#1372500
0%
#1373750
b1010 /
1%
#1375000
0%
#1376250
b1011 /
1%
#1377500
0%
#1378750
b1100 /
1%
#1380000
0%
#1381250
b1101 /
1%
#1382500
0%
#1383750
b1110 /
1%
#1385000
0%
#1386250
b1111 /
1%
#1387500
0%
#1388750
b10000 /
1%
#1390000
0%
#1391250
b10001 /
1%
#1392500
0%
#1393750
b10010 /
1%
#1395000
0%
#1396250
b10011 /
1%
#1397500
0%
#1398750
b10100 /
1%
#1400000
0%
#1401250
b10101 /
1%
#1402500
0%
#1403750
b10110 /
1%
#1405000
0%
#1406250
b10111 /
1%
#1407500
0%
#1408750
b11000 /
1%
#1410000
0%
#1411250
b11001 /
1%
#1412500
0%
#1413750
b11010 /
1%
#1415000
0%
#1416250
b11011 /
1%
#1417500
0%
#1418750
b11100 /
1%
#1420000
0%
#1421250
b11101 /
1%
#1422500
0%
#1423750
b11110 /
1%
#1425000
0%
#1426250
b11111 /
1%
#1427500
0%
#1428750
b100000 /
1%
#1430000
0%
#1431250
b100001 /
1%
#1432500
0%
#1433750
b100010 /
1%
#1435000
0%
#1436250
b100011 /
1%
#1437500
0%
#1438750
b100100 /
1%
#1440000
0%
#1441250
b100101 /
1%
#1442500
0%
#1443750
b100110 /
1%
#1445000
0%
#1446250
b100111 /
1%
#1447500
0%
#1448750
1"
b0 /
b100 .
1%
#1450000
0%
#1451250
b1 /
1%
#1452500
0%
#1453750
b10 /
1%
#1455000
0%
#1456250
b11 /
1%
#1457500
0%
#1458750
b100 /
1%
#1460000
0%
#1461250
b101 /
1%
#1462500
0%
#1463750
b110 /
1%
#1465000
0%
#1466250
b111 /
1%
#1467500
0%
#1468750
b1000 /
1%
#1470000
0%
#1471250
b1001 /
1%
#1472500
0%
#1473750
b1010 /
1%
#1475000
0%
#1476250
b1011 /
1%
#1477500
0%
#1478750
b1100 /
1%
#1480000
0%
#1481250
b1101 /
1%
#1482500
0%
#1483750
b1110 /
1%
#1485000
0%
#1486250
b1111 /
1%
#1487500
0%
#1488750
b10000 /
1%
#1490000
0%
#1491250
b10001 /
1%
#1492500
0%
#1493750
b10010 /
1%
#1495000
0%
#1496250
b10011 /
1%
#1497500
0%
#1498750
b10100 /
1%
#1500000
0%
#1501250
b10101 /
1%
#1502500
0%
#1503750
b10110 /
1%
#1505000
0%
#1506250
b10111 /
1%
#1507500
0%
#1508750
b11000 /
1%
#1510000
0%
#1511250
b11001 /
1%
#1512500
0%
#1513750
b11010 /
1%
#1515000
0%
#1516250
b11011 /
1%
#1517500
0%
#1518750
b11100 /
1%
#1520000
0%
#1521250
b11101 /
1%
#1522500
0%
#1523750
b11110 /
1%
#1525000
0%
#1526250
b11111 /
1%
#1527500
0%
#1528750
b100000 /
1%
#1530000
0%
#1531250
b100001 /
1%
#1532500
0%
#1533750
b100010 /
1%
#1535000
0%
#1536250
b100011 /
1%
#1537500
0%
#1538750
b100100 /
1%
#1540000
0%
#1541250
b100101 /
1%
#1542500
0%
#1543750
b100110 /
1%
#1545000
0%
#1546250
b100111 /
1%
#1547500
0%
#1548750
b0 /
b101 .
1%
#1550000
0%
#1551250
b1 /
1%
#1552500
0%
#1553750
b10 /
1%
#1555000
0%
#1556250
b11 /
1%
#1557500
0%
#1558750
b100 /
1%
#1560000
0%
#1561250
b101 /
1%
#1562500
0%
#1563750
b110 /
1%
#1565000
0%
#1566250
b111 /
1%
#1567500
0%
#1568750
b1000 /
1%
#1570000
0%
#1571250
b1001 /
1%
#1572500
0%
#1573750
b1010 /
1%
#1575000
0%
#1576250
b1011 /
1%
#1577500
0%
#1578750
b1100 /
1%
#1580000
0%
#1581250
b1101 /
1%
#1582500
0%
#1583750
b1110 /
1%
#1585000
0%
#1586250
b1111 /
1%
#1587500
0%
#1588750
b10000 /
1%
#1590000
0%
#1591250
b10001 /
1%
#1592500
0%
#1593750
b10010 /
1%
#1595000
0%
#1596250
b10011 /
1%
#1597500
0%
#1598750
b10100 /
1%
#1600000
0%
#1601250
b10101 /
1%
#1602500
0%
#1603750
b10110 /
1%
#1605000
0%
#1606250
b10111 /
1%
#1607500
0%
#1608750
b11000 /
1%
#1610000
0%
#1611250
b11001 /
1%
#1612500
0%
#1613750
b11010 /
1%
#1615000
0%
#1616250
b11011 /
1%
#1617500
0%
#1618750
b11100 /
1%
#1620000
0%
#1621250
b11101 /
1%
#1622500
0%
#1623750
b11110 /
1%
#1625000
0%
#1626250
b11111 /
1%
#1627500
0%
#1628750
b100000 /
1%
#1630000
0%
#1631250
b100001 /
1%
#1632500
0%
#1633750
b100010 /
1%
#1635000
0%
#1636250
b100011 /
1%
#1637500
0%
#1638750
b100100 /
1%
#1640000
0%
#1641250
b100101 /
1%
#1642500
0%
#1643750
b100110 /
1%
#1645000
0%
#1646250
b100111 /
1%
#1647500
0%
#1648750
0"
b0 /
b110 .
1%
#1650000
0%
#1651250
b1 /
1%
#1652500
0%
#1653750
b10 /
1%
#1655000
0%
#1656250
b11 /
1%
#1657500
0%
#1658750
b100 /
1%
#1660000
0%
#1661250
b101 /
1%
#1662500
0%
#1663750
b110 /
1%
#1665000
0%
#1666250
b111 /
1%
#1667500
0%
#1668750
b1000 /
1%
#1670000
0%
#1671250
b1001 /
1%
#1672500
0%
#1673750
b1010 /
1%
#1675000
0%
#1676250
b1011 /
1%
#1677500
0%
#1678750
b1100 /
1%
#1680000
0%
#1681250
b1101 /
1%
#1682500
0%
#1683750
b1110 /
1%
#1685000
0%
#1686250
b1111 /
1%
#1687500
0%
#1688750
b10000 /
1%
#1690000
0%
#1691250
b10001 /
1%
#1692500
0%
#1693750
b10010 /
1%
#1695000
0%
#1696250
b10011 /
1%
#1697500
0%
#1698750
b10100 /
1%
#1700000
0%
#1701250
b10101 /
1%
#1702500
0%
#1703750
b10110 /
1%
#1705000
0%
#1706250
b10111 /
1%
#1707500
0%
#1708750
b11000 /
1%
#1710000
0%
#1711250
b11001 /
1%
#1712500
0%
#1713750
b11010 /
1%
#1715000
0%
#1716250
b11011 /
1%
#1717500
0%
#1718750
b11100 /
1%
#1720000
0%
#1721250
b11101 /
1%
#1722500
0%
#1723750
b11110 /
1%
#1725000
0%
#1726250
b11111 /
1%
#1727500
0%
#1728750
b100000 /
1%
#1730000
0%
#1731250
b100001 /
1%
#1732500
0%
#1733750
b100010 /
1%
#1735000
0%
#1736250
b100011 /
1%
